Visualising multiple pairwise variable correlations and other scores • bullseye
…
Installation

You can install the development version of bullseye from GitHub with:

# still in progress
# install.packages("devtools")
# devtools::install_github("cbhurley/bullseye")

Build a pairwise data structure

library(bullseye)
irisc <- pairwise_scores(iris, by = "Species") 
irisc
#> # A tibble: 24 × 6
#>    x            y            score   group      value pair_type
#>    <chr>        <chr>        <chr>   <fct>      <dbl> <chr>    
#>  1 Petal.Length Sepal.Length pearson setosa     0.267 nn       
#>  2 Petal.Width  Sepal.Length pearson setosa     0.278 nn       
#>  3 Sepal.Length Sepal.Width  pearson setosa     0.743 nn       
#>  4 Petal.Length Sepal.Width  pearson setosa     0.178 nn       
#>  5 Petal.Width  Sepal.Width  pearson setosa     0.233 nn       
#>  6 Petal.Length Petal.Width  pearson setosa     0.332 nn       
#>  7 Petal.Length Sepal.Length pearson versicolor 0.754 nn       
#>  8 Petal.Width  Sepal.Length pearson versicolor 0.546 nn       
#>  9 Sepal.Length Sepal.Width  pearson versicolor 0.526 nn       
#> 10 Petal.Length Sepal.Width  pearson versicolor 0.561 nn       
#> # ℹ 14 more rows
…
